﻿object={
	name="pine_sparse_generator_2_0"
	clamp_to_water_level=no
	render_under_water=no
	generated_content=yes
	layer="semidynamic_medium"
	pdxmesh="tree_fir_001_mesh"
	count=70
	transform="2287.436035 0.000000 3254.330811 0.000000 0.336998 0.000000 0.941505 0.412684 0.412684 0.412684
2271.972656 0.000000 3243.990234 0.000000 0.263272 0.000000 0.964722 0.560020 0.560020 0.560020
2340.916016 0.000000 3191.187500 0.000000 0.175162 0.000000 0.984540 0.450851 0.450851 0.450851
2306.627686 0.000000 3248.316650 0.000000 0.134926 0.000000 0.990856 0.451837 0.451837 0.451837
4706.508301 0.000000 2531.878174 0.000000 0.481113 0.000000 0.876658 0.413394 0.413394 0.413394
4699.739258 0.000000 2528.935791 0.000000 0.344192 0.000000 0.938899 0.416418 0.416418 0.416418
4705.128418 0.000000 2526.075684 0.000000 0.479348 0.000000 0.877625 0.478747 0.478747 0.478747
6139.003418 0.000000 2474.837891 0.000000 0.490132 0.000000 0.871648 0.550931 0.550931 0.550931
6134.203613 0.000000 2469.158691 0.000000 0.264742 0.000000 0.964319 0.526847 0.526847 0.526847
6118.826172 0.000000 2492.048584 0.000000 0.059295 0.000000 0.998241 0.634757 0.634757 0.634757
4334.245605 0.000000 2787.656982 0.000000 0.158370 0.000000 0.987380 0.438147 0.438147 0.438147
4254.816895 0.000000 2838.656494 0.000000 0.283327 0.000000 0.959023 0.442258 0.442258 0.442258
4258.087402 0.000000 2849.273926 0.000000 0.408499 0.000000 0.912759 0.603160 0.603160 0.603160
4258.977539 0.000000 2838.718262 0.000000 0.526770 0.000000 0.850008 0.478071 0.478071 0.478071
4261.604004 0.000000 2846.802734 0.000000 0.385886 0.000000 0.922546 0.623338 0.623338 0.623338
4410.504395 0.000000 2791.493164 0.000000 0.579698 0.000000 0.814832 0.386827 0.386827 0.386827
4356.756836 0.000000 2786.527588 0.000000 0.361342 0.000000 0.932433 0.615466 0.615466 0.615466
4415.163574 0.000000 2800.408936 0.000000 0.338878 0.000000 0.940830 0.461249 0.461249 0.461249
4401.424316 0.000000 2806.150879 0.000000 0.330931 0.000000 0.943655 0.419794 0.419794 0.419794
4394.219238 0.000000 2813.948975 0.000000 0.263014 0.000000 0.964792 0.591263 0.591263 0.591263
4397.814941 0.000000 2804.280518 0.000000 0.402564 0.000000 0.915392 0.505609 0.505609 0.505609
4364.062012 0.000000 2789.039795 0.000000 0.061631 0.000000 0.998099 0.507832 0.507832 0.507832
4412.312988 0.000000 2791.489258 0.000000 0.379238 0.000000 0.925299 0.526360 0.526360 0.526360
4355.049316 0.000000 2780.005127 0.000000 0.478576 0.000000 0.878046 0.473306 0.473306 0.473306
4390.078125 0.000000 2809.364014 0.000000 0.018731 0.000000 0.999825 0.494735 0.494735 0.494735
4354.970703 0.000000 2777.182129 0.000000 0.421768 0.000000 0.906704 0.481001 0.481001 0.481001
4367.217285 0.000000 2799.882812 0.000000 0.521010 0.000000 0.853551 0.659159 0.659159 0.659159
4419.913086 0.000000 2778.670898 0.000000 0.251301 0.000000 0.967909 0.389672 0.389672 0.389672
4454.385742 0.000000 2784.579346 0.000000 0.012604 0.000000 0.999921 0.480768 0.480768 0.480768
4415.510742 0.000000 2848.955566 0.000000 0.133970 0.000000 0.990985 0.402208 0.402208 0.402208
4414.970703 0.000000 2846.874756 0.000000 0.288338 0.000000 0.957529 0.470885 0.470885 0.470885
4395.960938 0.000000 2846.321045 0.000000 0.246306 0.000000 0.969192 0.445121 0.445121 0.445121
4140.051758 0.000000 3251.703613 0.000000 0.362010 0.000000 0.932174 0.513480 0.513480 0.513480
4132.550293 0.000000 3250.403320 0.000000 0.503046 0.000000 0.864259 0.510020 0.510020 0.510020
4149.177734 0.000000 3230.129883 0.000000 0.532197 0.000000 0.846621 0.472753 0.472753 0.472753
4123.528320 0.000000 3254.148682 0.000000 0.407891 0.000000 0.913031 0.655862 0.655862 0.655862
4132.099609 0.000000 3257.927246 0.000000 0.075234 0.000000 0.997166 0.455942 0.455942 0.455942
4098.657715 0.000000 3264.371826 0.000000 0.150751 0.000000 0.988572 0.467995 0.467995 0.467995
4141.249512 0.000000 3250.848145 0.000000 0.233681 0.000000 0.972313 0.510266 0.510266 0.510266
4128.813477 0.000000 3263.115234 0.000000 0.448655 0.000000 0.893705 0.501405 0.501405 0.501405
4133.210449 0.000000 3251.690918 0.000000 0.000203 0.000000 1.000000 0.497755 0.497755 0.497755
4153.460938 0.000000 3276.197021 0.000000 0.372519 0.000000 0.928025 0.387894 0.387894 0.387894
4144.748535 0.000000 3277.506104 0.000000 0.323992 0.000000 0.946060 0.621061 0.621061 0.621061
4142.908691 0.000000 3287.403076 0.000000 0.107037 0.000000 0.994255 0.558929 0.558929 0.558929
4173.612305 0.000000 3279.222412 0.000000 0.382783 0.000000 0.923838 0.512236 0.512236 0.512236
4172.241699 0.000000 3278.358643 0.000000 0.510653 0.000000 0.859787 0.515633 0.515633 0.515633
4178.338867 0.000000 3284.126953 0.000000 0.230809 0.000000 0.972999 0.552118 0.552118 0.552118
4388.830078 0.000000 3254.537109 0.000000 0.565625 0.000000 0.824663 0.477206 0.477206 0.477206
6163.443848 0.000000 2422.263428 0.000000 0.337775 0.000000 0.941227 0.401854 0.401854 0.401854
6177.365723 0.000000 2439.002930 0.000000 0.014449 0.000000 0.999896 0.442527 0.442527 0.442527
6160.004883 0.000000 2446.295898 0.000000 0.301450 0.000000 0.953482 0.465823 0.465823 0.465823
6161.817871 0.000000 2447.989258 0.000000 0.554175 0.000000 0.832400 0.471460 0.471460 0.471460
6267.429199 0.000000 2454.140625 0.000000 0.385226 0.000000 0.922822 0.568972 0.568972 0.568972
6244.990723 0.000000 2429.513672 0.000000 0.239271 0.000000 0.970953 0.645297 0.645297 0.645297
6265.206055 0.000000 2438.454590 0.000000 0.070270 0.000000 0.997528 0.494186 0.494186 0.494186
6245.265137 0.000000 2448.491699 0.000000 0.402043 0.000000 0.915621 0.539415 0.539415 0.539415
6265.728516 0.000000 2454.222900 0.000000 0.448597 0.000000 0.893734 0.618679 0.618679 0.618679
6234.692383 0.000000 2441.279053 0.000000 0.493047 0.000000 0.870003 0.655835 0.655835 0.655835
6228.575195 0.000000 2447.332275 0.000000 0.234679 0.000000 0.972073 0.512045 0.512045 0.512045
6267.523926 0.000000 2442.287354 0.000000 0.515259 0.000000 0.857034 0.499516 0.499516 0.499516
6328.096680 0.000000 2456.472168 0.000000 0.188067 0.000000 0.982156 0.428031 0.428031 0.428031
6289.688477 0.000000 2457.054932 0.000000 0.201789 0.000000 0.979429 0.449596 0.449596 0.449596
6275.050781 0.000000 2432.222412 0.000000 0.555613 0.000000 0.831441 0.529553 0.529553 0.529553
6324.080566 0.000000 2442.021729 0.000000 0.217082 0.000000 0.976153 0.572519 0.572519 0.572519
6315.954590 0.000000 2452.534180 0.000000 0.207935 0.000000 0.978143 0.458575 0.458575 0.458575
6275.916016 0.000000 2433.441162 0.000000 0.492569 0.000000 0.870273 0.527715 0.527715 0.527715
6278.813965 0.000000 2450.592041 0.000000 0.173955 0.000000 0.984754 0.603788 0.603788 0.603788
6341.572266 0.000000 2475.759033 0.000000 0.063215 0.000000 0.998000 0.543991 0.543991 0.543991
6356.141113 0.000000 2482.760010 0.000000 0.506885 0.000000 0.862014 0.472154 0.472154 0.472154
6342.363770 0.000000 2494.825195 0.000000 0.507624 0.000000 0.861579 0.395556 0.395556 0.395556
"}
object={
	name="pine_sparse_generator_2_1"
	clamp_to_water_level=no
	render_under_water=no
	generated_content=yes
	layer="semidynamic_medium"
	pdxmesh="tree_fir_002_mesh"
	count=94
	transform="2224.891357 0.000000 3247.983398 0.000000 0.881084 0.000000 0.472960 0.451010 0.451010 0.451010
2259.443848 0.000000 3269.529053 0.000000 0.651791 0.000000 0.758398 0.431506 0.431506 0.431506
2338.177490 0.000000 3190.058105 0.000000 0.837373 0.000000 0.546632 0.571314 0.571314 0.571314
4072.567383 0.000000 3254.292725 0.000000 0.712240 0.000000 0.701936 0.538283 0.538283 0.538283
6137.129395 0.000000 2467.646729 0.000000 0.768617 0.000000 0.639709 0.426844 0.426844 0.426844
6123.690430 0.000000 2488.876465 0.000000 0.790003 0.000000 0.613103 0.674683 0.674683 0.674683
6122.135254 0.000000 2489.812012 0.000000 0.801926 0.000000 0.597424 0.675439 0.675439 0.675439
4335.868652 0.000000 2759.660889 0.000000 0.938207 0.000000 0.346075 0.395289 0.395289 0.395289
4258.111328 0.000000 2855.833984 0.000000 0.934390 0.000000 0.356253 0.684882 0.684882 0.684882
4255.330566 0.000000 2856.639893 0.000000 0.909447 0.000000 0.415820 0.465469 0.465469 0.465469
4256.607910 0.000000 2863.309326 0.000000 0.699699 0.000000 0.714437 0.547008 0.547008 0.547008
4263.104492 0.000000 2836.112305 0.000000 0.849564 0.000000 0.527486 0.545748 0.545748 0.545748
4254.652344 0.000000 2836.304199 0.000000 0.929720 0.000000 0.368268 0.464531 0.464531 0.464531
4253.614258 0.000000 2855.946777 0.000000 0.913742 0.000000 0.406295 0.458049 0.458049 0.458049
4260.830078 0.000000 2859.146484 0.000000 0.708662 0.000000 0.705548 0.527126 0.527126 0.527126
4263.789551 0.000000 2838.156250 0.000000 0.600269 0.000000 0.799799 0.658692 0.658692 0.658692
4258.937988 0.000000 2854.723877 0.000000 0.924122 0.000000 0.382097 0.683727 0.683727 0.683727
4375.339844 0.000000 2800.141846 0.000000 0.709230 0.000000 0.704977 0.665134 0.665134 0.665134
4415.509766 0.000000 2804.952881 0.000000 0.692899 0.000000 0.721035 0.443576 0.443576 0.443576
4413.251953 0.000000 2774.548828 0.000000 0.908176 0.000000 0.418590 0.434958 0.434958 0.434958
4354.944824 0.000000 2785.130371 0.000000 0.867044 0.000000 0.498231 0.599098 0.599098 0.599098
4398.671387 0.000000 2814.188965 0.000000 0.694915 0.000000 0.719092 0.439917 0.439917 0.439917
4352.712402 0.000000 2785.955322 0.000000 0.907550 0.000000 0.419944 0.438742 0.438742 0.438742
4384.607910 0.000000 2806.824951 0.000000 0.877821 0.000000 0.478989 0.518917 0.518917 0.518917
4354.199219 0.000000 2774.846680 0.000000 0.836999 0.000000 0.547204 0.638254 0.638254 0.638254
4412.034180 0.000000 2815.557617 0.000000 0.664715 0.000000 0.747097 0.496330 0.496330 0.496330
4364.080078 0.000000 2799.023193 0.000000 0.835551 0.000000 0.549413 0.458833 0.458833 0.458833
4373.008301 0.000000 2796.839355 0.000000 0.818266 0.000000 0.574839 0.497625 0.497625 0.497625
4354.681152 0.000000 2789.952881 0.000000 0.947447 0.000000 0.319914 0.654430 0.654430 0.654430
4367.736328 0.000000 2798.495605 0.000000 0.633224 0.000000 0.773968 0.664657 0.664657 0.664657
4356.635742 0.000000 2780.137207 0.000000 0.736748 0.000000 0.676167 0.563111 0.563111 0.563111
4366.469238 0.000000 2786.392822 0.000000 0.596311 0.000000 0.802754 0.663194 0.663194 0.663194
4364.917480 0.000000 2785.931396 0.000000 0.615423 0.000000 0.788197 0.553172 0.553172 0.553172
4366.035156 0.000000 2793.734131 0.000000 0.929510 0.000000 0.368796 0.685412 0.685412 0.685412
4371.521973 0.000000 2799.510010 0.000000 0.912132 0.000000 0.409897 0.681843 0.681843 0.681843
4358.813965 0.000000 2789.498291 0.000000 0.917942 0.000000 0.396714 0.636496 0.636496 0.636496
4357.597656 0.000000 2781.201904 0.000000 0.794834 0.000000 0.606827 0.565576 0.565576 0.565576
4455.465820 0.000000 2777.620117 0.000000 0.751008 0.000000 0.660293 0.432003 0.432003 0.432003
4416.712402 0.000000 2785.955322 0.000000 0.663598 0.000000 0.748090 0.545728 0.545728 0.545728
4458.415039 0.000000 2787.352539 0.000000 0.783812 0.000000 0.620998 0.479609 0.479609 0.479609
4416.043457 0.000000 2791.985352 0.000000 0.782594 0.000000 0.622533 0.548367 0.548367 0.548367
4425.923828 0.000000 2785.328857 0.000000 0.863660 0.000000 0.504074 0.550193 0.550193 0.550193
4441.909180 0.000000 2784.820557 0.000000 0.940085 0.000000 0.340941 0.686228 0.686228 0.686228
4397.942871 0.000000 2846.159668 0.000000 0.846905 0.000000 0.531745 0.453567 0.453567 0.453567
4397.531250 0.000000 2842.611816 0.000000 0.931088 0.000000 0.364795 0.518004 0.518004 0.518004
4416.936035 0.000000 2846.828369 0.000000 0.946523 0.000000 0.322636 0.402124 0.402124 0.402124
4129.910645 0.000000 3261.932129 0.000000 0.857732 0.000000 0.514097 0.444498 0.444498 0.444498
4127.373535 0.000000 3263.042480 0.000000 0.798971 0.000000 0.601370 0.483848 0.483848 0.483848
4122.529785 0.000000 3275.016113 0.000000 0.797265 0.000000 0.603629 0.466963 0.466963 0.466963
4150.302246 0.000000 3233.896729 0.000000 0.629620 0.000000 0.776903 0.432862 0.432862 0.432862
4145.909180 0.000000 3251.450684 0.000000 0.932671 0.000000 0.360729 0.685328 0.685328 0.685328
4144.395508 0.000000 3251.940430 0.000000 0.929645 0.000000 0.368456 0.684998 0.684998 0.684998
4133.817871 0.000000 3253.176270 0.000000 0.908931 0.000000 0.416946 0.603722 0.603722 0.603722
4164.189941 0.000000 3264.772705 0.000000 0.691213 0.000000 0.722652 0.480522 0.480522 0.480522
4162.657715 0.000000 3264.371826 0.000000 0.826369 0.000000 0.563129 0.624639 0.624639 0.624639
4141.587891 0.000000 3283.865967 0.000000 0.926102 0.000000 0.377273 0.471980 0.471980 0.471980
4140.442383 0.000000 3282.606445 0.000000 0.779777 0.000000 0.626058 0.466417 0.466417 0.466417
4173.188965 0.000000 3284.348389 0.000000 0.946596 0.000000 0.322423 0.687407 0.687407 0.687407
4183.035156 0.000000 3286.530762 0.000000 0.782747 0.000000 0.622340 0.672707 0.672707 0.672707
6155.568848 0.000000 2428.297119 0.000000 0.852096 0.000000 0.523385 0.515860 0.515860 0.515860
6209.118652 0.000000 2417.073975 0.000000 0.673670 0.000000 0.739033 0.513121 0.513121 0.513121
6240.330078 0.000000 2426.641113 0.000000 0.948299 0.000000 0.317380 0.478955 0.478955 0.478955
6215.260254 0.000000 2418.948242 0.000000 0.835629 0.000000 0.549294 0.535747 0.535747 0.535747
6160.939453 0.000000 2444.756836 0.000000 0.830527 0.000000 0.556979 0.404010 0.404010 0.404010
6161.219727 0.000000 2440.286865 0.000000 0.848773 0.000000 0.528758 0.508206 0.508206 0.508206
6152.364746 0.000000 2429.284912 0.000000 0.732304 0.000000 0.680978 0.522416 0.522416 0.522416
6149.854492 0.000000 2463.581299 0.000000 0.608515 0.000000 0.793543 0.619656 0.619656 0.619656
6241.412109 0.000000 2443.785156 0.000000 0.590846 0.000000 0.806784 0.428350 0.428350 0.428350
6262.180664 0.000000 2452.678223 0.000000 0.821721 0.000000 0.569890 0.564959 0.564959 0.564959
6235.966309 0.000000 2438.441162 0.000000 0.752587 0.000000 0.658493 0.561915 0.561915 0.561915
6262.302246 0.000000 2443.115479 0.000000 0.727838 0.000000 0.685749 0.461183 0.461183 0.461183
6247.260742 0.000000 2450.432129 0.000000 0.926709 0.000000 0.375780 0.684987 0.684987 0.684987
6260.916016 0.000000 2436.191162 0.000000 0.666953 0.000000 0.745100 0.580463 0.580463 0.580463
6242.375977 0.000000 2445.270752 0.000000 0.801035 0.000000 0.598617 0.671400 0.671400 0.671400
6218.256348 0.000000 2433.058838 0.000000 0.865793 0.000000 0.500403 0.486328 0.486328 0.486328
6233.045410 0.000000 2440.719971 0.000000 0.729503 0.000000 0.683977 0.537067 0.537067 0.537067
6285.612305 0.000000 2431.956787 0.000000 0.931950 0.000000 0.362587 0.487554 0.487554 0.487554
6319.448242 0.000000 2453.335693 0.000000 0.845155 0.000000 0.534521 0.506178 0.506178 0.506178
6300.979980 0.000000 2444.107178 0.000000 0.604322 0.000000 0.796740 0.443348 0.443348 0.443348
6314.440430 0.000000 2445.037109 0.000000 0.853864 0.000000 0.520497 0.440590 0.440590 0.440590
6315.071777 0.000000 2439.406738 0.000000 0.690350 0.000000 0.723475 0.530176 0.530176 0.530176
6348.721191 0.000000 2467.153076 0.000000 0.901509 0.000000 0.432761 0.396593 0.396593 0.396593
6340.248535 0.000000 2450.127930 0.000000 0.686673 0.000000 0.726967 0.471166 0.471166 0.471166
6349.340332 0.000000 2469.054932 0.000000 0.733936 0.000000 0.679219 0.529854 0.529854 0.529854
6346.416504 0.000000 2460.512207 0.000000 0.622909 0.000000 0.782294 0.558869 0.558869 0.558869
6352.310547 0.000000 2476.423584 0.000000 0.805201 0.000000 0.593002 0.588301 0.588301 0.588301
6355.343262 0.000000 2480.429199 0.000000 0.789159 0.000000 0.614190 0.461098 0.461098 0.461098
6354.536621 0.000000 2482.297852 0.000000 0.718414 0.000000 0.695616 0.483158 0.483158 0.483158
6351.354980 0.000000 2475.050293 0.000000 0.822095 0.000000 0.569350 0.602148 0.602148 0.602148
6342.070312 0.000000 2492.352539 0.000000 0.875009 0.000000 0.484106 0.477266 0.477266 0.477266
6345.693359 0.000000 2494.375244 0.000000 0.904133 0.000000 0.427251 0.514567 0.514567 0.514567
6353.288086 0.000000 2490.393799 0.000000 0.719830 0.000000 0.694151 0.521985 0.521985 0.521985
6357.555664 0.000000 2489.397461 0.000000 0.624324 0.000000 0.781166 0.507970 0.507970 0.507970
6346.378418 0.000000 2497.173828 0.000000 0.752226 0.000000 0.658905 0.510161 0.510161 0.510161
"}
object={
	name="pine_sparse_generator_2_2"
	clamp_to_water_level=no
	render_under_water=no
	generated_content=yes
	layer="semidynamic_medium"
	pdxmesh="tree_fir_003_mesh"
	count=76
	transform="2225.394043 0.000000 3244.939209 0.000000 0.996373 0.000000 -0.085095 0.404150 0.404150 0.404150
2208.594482 0.000000 3239.247803 0.000000 0.977588 0.000000 0.210529 0.616054 0.616054 0.616054
2340.682129 0.000000 3186.914307 0.000000 0.958437 0.000000 0.285303 0.525662 0.525662 0.525662
4079.436035 0.000000 3254.330811 0.000000 0.953912 0.000000 0.300085 0.475475 0.475475 0.475475
6130.750488 0.000000 2469.381348 0.000000 0.971928 0.000000 -0.235279 0.599802 0.599802 0.599802
6118.707031 0.000000 2493.869873 0.000000 0.999268 0.000000 0.038258 0.698348 0.698348 0.698348
4336.587891 0.000000 2787.987549 0.000000 0.973283 0.000000 -0.229608 0.416171 0.416171 0.416171
4257.412109 0.000000 2839.175781 0.000000 0.994391 0.000000 -0.105764 0.489350 0.489350 0.489350
4256.801270 0.000000 2852.533936 0.000000 0.967972 0.000000 0.251058 0.677959 0.677959 0.677959
4259.093262 0.000000 2846.594971 0.000000 0.998014 0.000000 0.062988 0.697593 0.697593 0.697593
4253.067383 0.000000 2847.731689 0.000000 0.999758 0.000000 0.022014 0.590562 0.590562 0.590562
4254.348145 0.000000 2854.557129 0.000000 0.986628 0.000000 -0.162990 0.536139 0.536139 0.536139
4410.637207 0.000000 2794.667969 0.000000 0.995822 0.000000 0.091316 0.399694 0.399694 0.399694
4371.640625 0.000000 2793.046143 0.000000 0.968670 0.000000 -0.248353 0.410483 0.410483 0.410483
4407.867676 0.000000 2814.966064 0.000000 0.969361 0.000000 0.245639 0.445734 0.445734 0.445734
4404.316895 0.000000 2796.860352 0.000000 0.962108 0.000000 -0.272669 0.470727 0.470727 0.470727
4392.388184 0.000000 2817.736084 0.000000 0.997484 0.000000 0.070898 0.579452 0.579452 0.579452
4365.642090 0.000000 2789.385986 0.000000 0.999946 0.000000 0.010441 0.543867 0.543867 0.543867
4354.209961 0.000000 2778.509277 0.000000 0.998055 0.000000 -0.062343 0.527885 0.527885 0.527885
4392.653320 0.000000 2813.376953 0.000000 0.963989 0.000000 0.265943 0.633440 0.633440 0.633440
4406.908203 0.000000 2779.608398 0.000000 0.997728 0.000000 0.067375 0.563948 0.563948 0.563948
4395.248047 0.000000 2814.931396 0.000000 0.998209 0.000000 -0.059820 0.610584 0.610584 0.610584
4392.675293 0.000000 2814.774658 0.000000 0.973521 0.000000 0.228599 0.552045 0.552045 0.552045
4456.974609 0.000000 2779.255859 0.000000 0.973386 0.000000 0.229173 0.396813 0.396813 0.396813
4442.245605 0.000000 2786.246338 0.000000 0.976356 0.000000 -0.216171 0.705249 0.705249 0.705249
4457.650879 0.000000 2777.020996 0.000000 0.999416 0.000000 0.034182 0.420066 0.420066 0.420066
4424.722168 0.000000 2800.253418 0.000000 0.959977 0.000000 -0.280080 0.673486 0.673486 0.673486
4455.260742 0.000000 2789.338379 0.000000 0.962579 0.000000 -0.271002 0.508678 0.508678 0.508678
4434.442383 0.000000 2782.750977 0.000000 0.978189 0.000000 -0.207719 0.523247 0.523247 0.523247
4425.880371 0.000000 2801.252930 0.000000 0.999596 0.000000 -0.028415 0.664703 0.664703 0.664703
4439.560547 0.000000 2785.260254 0.000000 0.998915 0.000000 0.046565 0.515645 0.515645 0.515645
4443.790527 0.000000 2786.487793 0.000000 0.958355 0.000000 -0.285579 0.707945 0.707945 0.707945
4417.945801 0.000000 2784.038086 0.000000 0.996445 0.000000 -0.084249 0.569835 0.569835 0.569835
4399.339355 0.000000 2824.464844 0.000000 0.982652 0.000000 0.185458 0.411925 0.411925 0.411925
4397.143066 0.000000 2824.520996 0.000000 0.997462 0.000000 0.071196 0.534605 0.534605 0.534605
4391.089844 0.000000 2839.531982 0.000000 0.973791 0.000000 0.227447 0.486576 0.486576 0.486576
4392.687988 0.000000 2846.719482 0.000000 0.999773 0.000000 -0.021304 0.483749 0.483749 0.483749
4120.572266 0.000000 3259.073730 0.000000 0.979679 0.000000 0.200571 0.397237 0.397237 0.397237
4152.639160 0.000000 3224.581787 0.000000 0.976185 0.000000 -0.216941 0.404056 0.404056 0.404056
4151.794922 0.000000 3232.615479 0.000000 0.964574 0.000000 -0.263813 0.452593 0.452593 0.452593
4135.039551 0.000000 3259.770996 0.000000 0.992925 0.000000 0.118745 0.533486 0.533486 0.533486
4162.269043 0.000000 3273.043213 0.000000 0.978624 0.000000 0.205660 0.502472 0.502472 0.502472
4290.552734 0.000000 3219.201172 0.000000 0.958204 0.000000 0.286086 0.688110 0.688110 0.688110
4299.084961 0.000000 3229.988037 0.000000 0.993845 0.000000 -0.110778 0.467712 0.467712 0.467712
4298.378418 0.000000 3231.470703 0.000000 0.973840 0.000000 -0.227236 0.707681 0.707681 0.707681
4141.431152 0.000000 3280.145508 0.000000 0.954957 0.000000 0.296746 0.506227 0.506227 0.506227
4140.188965 0.000000 3281.114990 0.000000 0.961199 0.000000 -0.275856 0.518791 0.518791 0.518791
4182.077637 0.000000 3293.268311 0.000000 0.982502 0.000000 0.186253 0.493223 0.493223 0.493223
4179.894531 0.000000 3283.865479 0.000000 0.999986 0.000000 -0.005254 0.416746 0.416746 0.416746
4179.935547 0.000000 3285.852295 0.000000 0.999807 0.000000 -0.019621 0.589760 0.589760 0.589760
4183.560547 0.000000 3293.619629 0.000000 0.993357 0.000000 0.115076 0.494697 0.494697 0.494697
4389.817871 0.000000 3253.176270 0.000000 0.999373 0.000000 0.035398 0.492422 0.492422 0.492422
6167.348633 0.000000 2425.342285 0.000000 0.965474 0.000000 0.260498 0.435837 0.435837 0.435837
6164.141113 0.000000 2426.275635 0.000000 0.970846 0.000000 -0.239702 0.551936 0.551936 0.551936
6156.919922 0.000000 2422.379395 0.000000 0.996303 0.000000 0.085903 0.559575 0.559575 0.559575
6200.412109 0.000000 2427.389893 0.000000 0.992109 0.000000 -0.125377 0.705152 0.705152 0.705152
6244.342285 0.000000 2428.012451 0.000000 0.967268 0.000000 -0.253758 0.710559 0.710559 0.710559
6153.795410 0.000000 2428.852539 0.000000 0.999466 0.000000 0.032673 0.539420 0.539420 0.539420
6154.583984 0.000000 2455.052246 0.000000 0.990676 0.000000 0.136242 0.694805 0.694805 0.694805
6232.512695 0.000000 2436.561035 0.000000 0.968512 0.000000 -0.248967 0.709674 0.709674 0.709674
6245.508789 0.000000 2444.216553 0.000000 0.997568 0.000000 -0.069698 0.565512 0.565512 0.565512
6265.198730 0.000000 2455.563477 0.000000 0.979858 0.000000 -0.199695 0.662647 0.662647 0.662647
6313.128906 0.000000 2449.693848 0.000000 0.972997 0.000000 -0.230817 0.420168 0.420168 0.420168
6320.587891 0.000000 2449.081299 0.000000 0.999738 0.000000 0.022885 0.414365 0.414365 0.414365
6276.248535 0.000000 2450.127930 0.000000 0.954788 0.000000 0.297286 0.460177 0.460177 0.460177
6319.135742 0.000000 2444.884277 0.000000 0.991279 0.000000 0.131783 0.484642 0.484642 0.484642
6287.736328 0.000000 2459.589355 0.000000 0.998426 0.000000 0.056078 0.476381 0.476381 0.476381
6316.147461 0.000000 2444.463623 0.000000 0.980033 0.000000 0.198836 0.494892 0.494892 0.494892
6318.203125 0.000000 2452.349609 0.000000 0.971535 0.000000 0.236895 0.513348 0.513348 0.513348
6355.443848 0.000000 2478.747803 0.000000 0.959683 0.000000 -0.281084 0.524917 0.524917 0.524917
6337.042969 0.000000 2461.329102 0.000000 0.969851 0.000000 -0.243698 0.446260 0.446260 0.446260
6354.979980 0.000000 2468.842041 0.000000 0.982869 0.000000 0.184307 0.574424 0.574424 0.574424
6344.280273 0.000000 2463.059082 0.000000 0.958121 0.000000 0.286365 0.471912 0.471912 0.471912
6343.546875 0.000000 2460.133057 0.000000 0.997422 0.000000 0.071754 0.513142 0.513142 0.513142
6353.775879 0.000000 2476.401367 0.000000 0.999903 0.000000 -0.013941 0.607270 0.607270 0.607270
6349.322266 0.000000 2489.909180 0.000000 0.990387 0.000000 -0.138323 0.553401 0.553401 0.553401
"}
object={
	name="pine_sparse_generator_2_3"
	clamp_to_water_level=no
	render_under_water=no
	generated_content=yes
	layer="semidynamic_medium"
	pdxmesh="tree_fir_004_mesh"
	count=75
	transform="4060.380127 0.000000 3274.459717 0.000000 0.757360 0.000000 -0.652997 0.421219 0.421219 0.421219
4075.659912 0.000000 3255.789062 0.000000 0.908969 0.000000 -0.416864 0.455374 0.455374 0.455374
4704.284180 0.000000 2527.501221 0.000000 0.787823 0.000000 -0.615901 0.514757 0.514757 0.514757
6130.216309 0.000000 2473.373047 0.000000 0.758587 0.000000 -0.651571 0.486869 0.486869 0.486869
6133.007812 0.000000 2469.978516 0.000000 0.841123 0.000000 -0.540843 0.625630 0.625630 0.625630
6131.609375 0.000000 2464.177246 0.000000 0.667754 0.000000 -0.744382 0.732720 0.732720 0.732720
4350.390625 0.000000 2767.010498 0.000000 0.736542 0.000000 -0.676392 0.454539 0.454539 0.454539
4334.880859 0.000000 2761.785645 0.000000 0.695796 0.000000 -0.718239 0.434890 0.434890 0.434890
4350.383301 0.000000 2788.900879 0.000000 0.873947 0.000000 -0.486022 0.595111 0.595111 0.595111
4261.379395 0.000000 2861.105469 0.000000 0.710913 0.000000 -0.703280 0.631764 0.631764 0.631764
4257.762207 0.000000 2846.116699 0.000000 0.804251 0.000000 -0.594289 0.629610 0.629610 0.629610
4258.581543 0.000000 2843.398438 0.000000 0.621569 0.000000 -0.783360 0.582572 0.582572 0.582572
4353.626465 0.000000 2766.167236 0.000000 0.889154 0.000000 -0.457609 0.612596 0.612596 0.612596
4393.260742 0.000000 2811.956543 0.000000 0.860660 0.000000 -0.509180 0.406935 0.406935 0.406935
4411.100586 0.000000 2777.827148 0.000000 0.771024 0.000000 -0.636806 0.409548 0.409548 0.409548
4371.362793 0.000000 2795.722168 0.000000 0.596404 0.000000 -0.802684 0.443132 0.443132 0.443132
4371.894531 0.000000 2775.506104 0.000000 0.922709 0.000000 -0.385498 0.450765 0.450765 0.450765
4395.596680 0.000000 2816.275879 0.000000 0.905993 0.000000 -0.423293 0.433311 0.433311 0.433311
4390.962402 0.000000 2811.914307 0.000000 0.710337 0.000000 -0.703861 0.527562 0.527562 0.527562
4352.597656 0.000000 2788.201660 0.000000 0.863688 0.000000 -0.504027 0.465171 0.465171 0.465171
4355.095703 0.000000 2783.184570 0.000000 0.941085 0.000000 -0.338170 0.459942 0.459942 0.459942
4412.473145 0.000000 2794.718506 0.000000 0.943512 0.000000 -0.331339 0.501965 0.501965 0.501965
4360.404785 0.000000 2788.162354 0.000000 0.614948 0.000000 -0.788567 0.738183 0.738183 0.738183
4409.112305 0.000000 2774.324707 0.000000 0.719926 0.000000 -0.694051 0.543863 0.543863 0.543863
4375.955566 0.000000 2801.524902 0.000000 0.860927 0.000000 -0.508729 0.723784 0.723784 0.723784
4385.762207 0.000000 2789.632324 0.000000 0.931242 0.000000 -0.364402 0.589447 0.589447 0.589447
4427.442871 0.000000 2785.542969 0.000000 0.633122 0.000000 -0.774052 0.538170 0.538170 0.538170
4459.095215 0.000000 2782.052979 0.000000 0.613543 0.000000 -0.789661 0.524063 0.524063 0.524063
4462.245605 0.000000 2787.656982 0.000000 0.918925 0.000000 -0.394433 0.590321 0.590321 0.590321
4456.687988 0.000000 2790.235107 0.000000 0.873077 0.000000 -0.487582 0.533944 0.533944 0.533944
4463.392090 0.000000 2789.014648 0.000000 0.935502 0.000000 -0.353322 0.496405 0.496405 0.496405
4440.874512 0.000000 2785.749512 0.000000 0.754277 0.000000 -0.656556 0.728351 0.728351 0.728351
4396.016602 0.000000 2825.967285 0.000000 0.891437 0.000000 -0.453145 0.547293 0.547293 0.547293
4137.656250 0.000000 3259.719238 0.000000 0.774965 0.000000 -0.632004 0.409360 0.409360 0.409360
4123.203125 0.000000 3258.927002 0.000000 0.777106 0.000000 -0.629370 0.494544 0.494544 0.494544
4131.522949 0.000000 3264.255371 0.000000 0.821356 0.000000 -0.570416 0.427826 0.427826 0.427826
4123.673340 0.000000 3272.382812 0.000000 0.931831 0.000000 -0.362894 0.504663 0.504663 0.504663
4120.641113 0.000000 3275.333984 0.000000 0.870385 0.000000 -0.492372 0.452765 0.452765 0.452765
4122.057129 0.000000 3255.072510 0.000000 0.591359 0.000000 -0.806408 0.735983 0.735983 0.735983
4161.726074 0.000000 3262.513916 0.000000 0.879906 0.000000 -0.475148 0.460537 0.460537 0.460537
4290.657715 0.000000 3207.887451 0.000000 0.860648 0.000000 -0.509201 0.510035 0.510035 0.510035
4184.535645 0.000000 3292.448730 0.000000 0.681338 0.000000 -0.731969 0.439323 0.439323 0.439323
4179.236816 0.000000 3287.416748 0.000000 0.880737 0.000000 -0.473606 0.558018 0.558018 0.558018
4160.523438 0.000000 3277.749756 0.000000 0.711247 0.000000 -0.702942 0.513020 0.513020 0.513020
4181.918945 0.000000 3287.601074 0.000000 0.820158 0.000000 -0.572137 0.727144 0.727144 0.727144
4181.272461 0.000000 3284.463379 0.000000 0.842583 0.000000 -0.538566 0.725345 0.725345 0.725345
4182.733398 0.000000 3284.864746 0.000000 0.935305 0.000000 -0.353843 0.716118 0.716118 0.716118
6206.390625 0.000000 2428.104248 0.000000 0.827307 0.000000 -0.561751 0.476574 0.476574 0.476574
6155.049316 0.000000 2422.224609 0.000000 0.880245 0.000000 -0.474519 0.629502 0.629502 0.629502
6241.680176 0.000000 2428.171387 0.000000 0.912285 0.000000 -0.409557 0.617169 0.617169 0.617169
6148.789062 0.000000 2462.685059 0.000000 0.657026 0.000000 -0.753868 0.678269 0.678269 0.678269
6174.652344 0.000000 2440.913574 0.000000 0.796343 0.000000 -0.604845 0.467305 0.467305 0.467305
6175.632324 0.000000 2439.496826 0.000000 0.685946 0.000000 -0.727652 0.582508 0.582508 0.582508
6155.316406 0.000000 2429.745117 0.000000 0.913354 0.000000 -0.407167 0.538002 0.538002 0.538002
6268.013184 0.000000 2443.692871 0.000000 0.920312 0.000000 -0.391186 0.416679 0.416679 0.416679
6208.371582 0.000000 2433.912842 0.000000 0.597006 0.000000 -0.802237 0.486854 0.486854 0.486854
6264.710938 0.000000 2452.659668 0.000000 0.900609 0.000000 -0.434631 0.502216 0.502216 0.502216
6244.813477 0.000000 2445.982422 0.000000 0.597542 0.000000 -0.801838 0.587556 0.587556 0.587556
6242.977539 0.000000 2443.327637 0.000000 0.621460 0.000000 -0.783446 0.643761 0.643761 0.643761
6285.487793 0.000000 2438.844727 0.000000 0.834278 0.000000 -0.551343 0.593068 0.593068 0.593068
6315.311523 0.000000 2453.975830 0.000000 0.748542 0.000000 -0.663087 0.499523 0.499523 0.499523
6318.245605 0.000000 2448.750732 0.000000 0.621530 0.000000 -0.783391 0.532218 0.532218 0.532218
6283.084961 0.000000 2439.206787 0.000000 0.811000 0.000000 -0.585046 0.505755 0.505755 0.505755
6288.790527 0.000000 2436.983398 0.000000 0.792176 0.000000 -0.610293 0.547533 0.547533 0.547533
6331.993164 0.000000 2445.371826 0.000000 0.626831 0.000000 -0.779155 0.548820 0.548820 0.548820
6335.210449 0.000000 2463.429932 0.000000 0.758804 0.000000 -0.651319 0.635933 0.635933 0.635933
6284.241699 0.000000 2431.093018 0.000000 0.912845 0.000000 -0.408307 0.503650 0.503650 0.503650
6317.641602 0.000000 2445.185059 0.000000 0.711151 0.000000 -0.703039 0.515095 0.515095 0.515095
6344.173828 0.000000 2451.094482 0.000000 0.916540 0.000000 -0.399942 0.549962 0.549962 0.549962
6355.253418 0.000000 2476.414795 0.000000 0.690462 0.000000 -0.723368 0.476308 0.476308 0.476308
6353.033691 0.000000 2468.789062 0.000000 0.847295 0.000000 -0.531122 0.514647 0.514647 0.514647
6354.010742 0.000000 2479.361084 0.000000 0.662414 0.000000 -0.749138 0.537320 0.537320 0.537320
6354.498535 0.000000 2489.130615 0.000000 0.590634 0.000000 -0.806939 0.468223 0.468223 0.468223
6349.612305 0.000000 2488.441162 0.000000 0.763965 0.000000 -0.645257 0.567190 0.567190 0.567190
6356.029785 0.000000 2489.239258 0.000000 0.606123 0.000000 -0.795371 0.549420 0.549420 0.549420
"}
object={
	name="pine_sparse_generator_2_4"
	clamp_to_water_level=no
	render_under_water=no
	generated_content=yes
	layer="semidynamic_medium"
	pdxmesh="tree_fir_005_mesh"
	count=74
	transform="2209.762207 0.000000 3241.507324 0.000000 0.374018 0.000000 -0.927422 0.572669 0.572669 0.572669
2271.888672 0.000000 3241.153564 0.000000 0.404405 0.000000 -0.914580 0.457181 0.457181 0.457181
2341.967529 0.000000 3188.022217 0.000000 0.523379 0.000000 -0.852100 0.739393 0.739393 0.739393
2339.500244 0.000000 3190.709473 0.000000 0.356023 0.000000 -0.934477 0.620517 0.620517 0.620517
4071.147461 0.000000 3256.512695 0.000000 0.571084 0.000000 -0.820892 0.516776 0.516776 0.516776
6129.314941 0.000000 2471.526367 0.000000 0.154861 0.000000 -0.987936 0.569435 0.569435 0.569435
6129.031738 0.000000 2475.166748 0.000000 0.046463 0.000000 -0.998920 0.545721 0.545721 0.545721
6130.103516 0.000000 2477.161133 0.000000 0.575531 0.000000 -0.817780 0.458118 0.458118 0.458118
6137.007324 0.000000 2474.488770 0.000000 0.283133 0.000000 -0.959081 0.701275 0.701275 0.701275
6120.756348 0.000000 2490.779053 0.000000 0.043734 0.000000 -0.999043 0.762980 0.762980 0.762980
4332.127930 0.000000 2795.175781 0.000000 0.229175 0.000000 -0.973385 0.438928 0.438928 0.438928
4344.654297 0.000000 2784.947266 0.000000 0.561085 0.000000 -0.827758 0.609888 0.609888 0.609888
4348.201172 0.000000 2788.324951 0.000000 0.500729 0.000000 -0.865604 0.522705 0.522705 0.522705
4253.739258 0.000000 2845.681885 0.000000 0.274222 0.000000 -0.961666 0.453079 0.453079 0.453079
4260.560547 0.000000 2838.274414 0.000000 0.434944 0.000000 -0.900458 0.498827 0.498827 0.498827
4258.375977 0.000000 2840.661377 0.000000 0.579593 0.000000 -0.814906 0.499803 0.499803 0.499803
4257.699219 0.000000 2837.648926 0.000000 0.498913 0.000000 -0.866652 0.524860 0.524860 0.524860
4268.188965 0.000000 2829.239990 0.000000 0.010938 0.000000 -0.999940 0.553063 0.553063 0.553063
4259.030762 0.000000 2848.113037 0.000000 0.580351 0.000000 -0.814367 0.670844 0.670844 0.670844
4355.913086 0.000000 2778.670898 0.000000 0.526547 0.000000 -0.850146 0.549512 0.549512 0.549512
4411.739258 0.000000 2772.240967 0.000000 0.455702 0.000000 -0.890132 0.502610 0.502610 0.502610
4361.322266 0.000000 2786.701904 0.000000 0.261937 0.000000 -0.965085 0.453283 0.453283 0.453283
4372.821777 0.000000 2798.845459 0.000000 0.274946 0.000000 -0.961460 0.757362 0.757362 0.757362
4412.771484 0.000000 2804.818604 0.000000 0.179121 0.000000 -0.983827 0.471762 0.471762 0.471762
4391.147461 0.000000 2804.637695 0.000000 0.066302 0.000000 -0.997800 0.547474 0.547474 0.547474
4391.039551 0.000000 2807.895996 0.000000 0.136389 0.000000 -0.990655 0.565514 0.565514 0.565514
4366.777344 0.000000 2787.986572 0.000000 0.557805 0.000000 -0.829972 0.738668 0.738668 0.738668
4364.617676 0.000000 2784.381592 0.000000 0.526978 0.000000 -0.849879 0.604615 0.604615 0.604615
4370.930176 0.000000 2791.596924 0.000000 0.157769 0.000000 -0.987476 0.538965 0.538965 0.538965
4413.587402 0.000000 2815.632324 0.000000 0.094561 0.000000 -0.995519 0.546856 0.546856 0.546856
4440.535645 0.000000 2784.089355 0.000000 0.533543 0.000000 -0.845773 0.739900 0.739900 0.739900
4458.440430 0.000000 2783.943359 0.000000 0.112565 0.000000 -0.993644 0.535594 0.535594 0.535594
4424.280273 0.000000 2801.965332 0.000000 0.566593 0.000000 -0.823998 0.697023 0.697023 0.697023
4455.388184 0.000000 2785.795166 0.000000 0.397887 0.000000 -0.917435 0.540006 0.540006 0.540006
4402.132324 0.000000 2843.639893 0.000000 0.332755 0.000000 -0.943013 0.725787 0.725787 0.725787
4157.251953 0.000000 3226.423828 0.000000 0.198767 0.000000 -0.980047 0.482128 0.482128 0.482128
4117.101562 0.000000 3266.060303 0.000000 0.346815 0.000000 -0.937933 0.498526 0.498526 0.498526
4129.433594 0.000000 3255.412842 0.000000 0.315010 0.000000 -0.949088 0.475742 0.475742 0.475742
4133.379395 0.000000 3256.496094 0.000000 0.217734 0.000000 -0.976008 0.511817 0.511817 0.511817
4293.041016 0.000000 3206.901611 0.000000 0.156182 0.000000 -0.987728 0.719010 0.719010 0.719010
4159.273438 0.000000 3287.484863 0.000000 0.154580 0.000000 -0.987980 0.641654 0.641654 0.641654
4152.246582 0.000000 3278.950684 0.000000 0.534609 0.000000 -0.845099 0.742225 0.742225 0.742225
4141.585449 0.000000 3286.526855 0.000000 0.383854 0.000000 -0.923394 0.572413 0.572413 0.572413
4183.068359 0.000000 3280.604980 0.000000 0.504097 0.000000 -0.863647 0.432336 0.432336 0.432336
4181.209473 0.000000 3282.956055 0.000000 0.426779 0.000000 -0.904356 0.745513 0.745513 0.745513
4183.673828 0.000000 3282.049805 0.000000 0.260956 0.000000 -0.965351 0.735124 0.735124 0.735124
6198.864258 0.000000 2427.342285 0.000000 0.022354 0.000000 -0.999750 0.420720 0.420720 0.420720
6207.697754 0.000000 2417.067871 0.000000 0.261401 0.000000 -0.965230 0.749653 0.749653 0.749653
6154.618164 0.000000 2423.787109 0.000000 0.008906 0.000000 -0.999960 0.661446 0.661446 0.661446
6164.440918 0.000000 2427.850342 0.000000 0.326153 0.000000 -0.945317 0.576050 0.576050 0.576050
6167.599609 0.000000 2426.898926 0.000000 0.550558 0.000000 -0.834797 0.553085 0.553085 0.553085
6162.425781 0.000000 2421.195801 0.000000 0.000978 0.000000 -1.000000 0.659453 0.659453 0.659453
6171.304688 0.000000 2417.482422 0.000000 0.431069 0.000000 -0.902319 0.748468 0.748468 0.748468
6239.732910 0.000000 2425.160645 0.000000 0.582881 0.000000 -0.812558 0.541669 0.541669 0.541669
6158.469238 0.000000 2447.486572 0.000000 0.422493 0.000000 -0.906366 0.584225 0.584225 0.584225
6167.035156 0.000000 2439.265137 0.000000 0.215516 0.000000 -0.976500 0.752750 0.752750 0.752750
6175.069336 0.000000 2438.211182 0.000000 0.285019 0.000000 -0.958522 0.594392 0.594392 0.594392
6232.077637 0.000000 2438.224609 0.000000 0.510737 0.000000 -0.859737 0.558400 0.558400 0.558400
6235.877441 0.000000 2440.319092 0.000000 0.202611 0.000000 -0.979259 0.757206 0.757206 0.757206
6211.050781 0.000000 2432.222412 0.000000 0.481840 0.000000 -0.876259 0.489392 0.489392 0.489392
6208.523438 0.000000 2430.484131 0.000000 0.552200 0.000000 -0.833712 0.500446 0.500446 0.500446
6283.486816 0.000000 2437.387695 0.000000 0.034341 0.000000 -0.999410 0.424734 0.424734 0.424734
6309.463867 0.000000 2436.433594 0.000000 0.045987 0.000000 -0.998942 0.604986 0.604986 0.604986
6278.028809 0.000000 2451.757812 0.000000 0.517414 0.000000 -0.855735 0.683997 0.683997 0.683997
6317.585449 0.000000 2439.261230 0.000000 0.152939 0.000000 -0.988236 0.467924 0.467924 0.467924
6299.504395 0.000000 2442.806396 0.000000 0.083582 0.000000 -0.996501 0.573305 0.573305 0.573305
6326.403320 0.000000 2448.513916 0.000000 0.264867 0.000000 -0.964285 0.495878 0.495878 0.495878
6329.728516 0.000000 2454.222900 0.000000 0.480168 0.000000 -0.877177 0.514740 0.514740 0.514740
6351.590332 0.000000 2480.924561 0.000000 0.586663 0.000000 -0.809831 0.468309 0.468309 0.468309
6346.618164 0.000000 2498.856934 0.000000 0.428986 0.000000 -0.903311 0.471488 0.471488 0.471488
6343.620605 0.000000 2491.541748 0.000000 0.323458 0.000000 -0.946243 0.537459 0.537459 0.537459
6354.929199 0.000000 2490.786621 0.000000 0.578456 0.000000 -0.815713 0.641129 0.641129 0.641129
6344.131348 0.000000 2494.700195 0.000000 0.565626 0.000000 -0.824662 0.546348 0.546348 0.546348
6351.104980 0.000000 2488.215088 0.000000 0.139415 0.000000 -0.990234 0.622302 0.622302 0.622302
"}
